%YAML 1.1
%TAG !u! tag:unity3d.com,2011:
--- !u!1045 &1
EditorBuildSettings:
  m_ObjectHideFlags: 0
  serializedVersion: 2
  m_Scenes:
  - enabled: 1
    path: Assets/StartScene.unity
    guid: 3dd7f7eca67e9ad44b5a20b8c0232372
  - enabled: 1
    path: Assets/First.unity
    guid: 7b54deecbfb9db14e8e2d3964027c64e
